Using R for Photobiology - Open Access Weather and Climate Data
…
hyper_tibble(tnc,
             lon = is_within(lon, my.lon),
             lat = is_within(lat, my.lat),
             time = is_within(time, my.period),
             na.rm = FALSE) %>%
  # convert time in number of days to a date
  mutate(date = ymd("1900-01-01") + days(time),
         year = year(date),
         month = month(date),
         tmax = ifelse(abs(tmax) == 32768, NA, tmax)) %>%
  select(-time) -> grid_area_in_time.tb

grid_area_in_time.tb

# A tibble: 720 × 6
    tmax   lon   lat date        year month
   <dbl> <dbl> <dbl> <date>     <dbl> <dbl>
 1  27.8  50.0  31.0 1960-04-01  1960     4
 2  27.5  50.1  31.0 1960-04-01  1960     4
 3  26.6  50.1  31.0 1960-04-01  1960     4
 4  23.2  50.1  31.0 1960-04-01  1960     4
 5  23.8  50.2  31.0 1960-04-01  1960     4
 6  26.0  50.2  31.0 1960-04-01  1960     4
 7  26.8  50.3  31.0 1960-04-01  1960     4
 8  26.7  50.3  31.0 1960-04-01  1960     4
 9  26.6  50.4  31.0 1960-04-01  1960     4
10  26.6  50.4  31.0 1960-04-01  1960     4
# ℹ 710 more rows
…
sum(!is.na(grid_area_in_time.tb$tg))

[1] 43082

Code
sum(is.na(grid_area_in_time.tb$tg))

[1] 1710518

Code
print(na.omit(grid_area_in_time.tb))

# A tibble: 43,082 × 6
       tg longitude latitude date        year month
    <dbl>     <dbl>    <dbl> <date>     <dbl> <dbl>
 1  0.760     -15.1     64.4 2020-03-02  2020     3
 2  1.38      -14.9     64.4 2020-03-02  2020     3
 3 -0.620     -14.9     64.6 2020-03-02  2020     3
 4  0.870     -14.6     64.6 2020-03-02  2020     3
 5  1.18      -14.4     64.6 2020-03-02  2020     3
 6  0.230     -14.4     64.9 2020-03-02  2020     3
 7  0.920     -14.1     64.9 2020-03-02  2020     3
 8  1.25      -13.9     64.9 2020-03-02  2020     3
 9  0.220     -15.1     64.4 2020-03-03  2020     3
10  0.800     -14.9     64.4 2020-03-03  2020     3
# ℹ 43,072 more rows
…
NASA/POWER CERES/MERRA2 Native Resolution Daily Data  
 Dates (month/day/year): 06/01/2020 through 06/30/2020  
 Location: Latitude  62.6   Longitude 29.76  
 Elevation from MERRA-2: Average for 0.5 x 0.625 degree lat/lon region = 111.91 meters 
 The value for missing source data that cannot be computed or is outside of the sources availability range: NA  
 Parameter(s):  
 
 Parameters: 
 RH2M                  MERRA-2 Relative Humidity at 2 Meters (%) ;
 T2M                   MERRA-2 Temperature at 2 Meters (C) ;
 ALLSKY_SFC_SW_DWN     CERES SYN1deg All Sky Surface Shortwave Downward Irradiance (MJ/m^2/day)  
 
# A tibble: 30 × 10
     LON   LAT  YEAR    MM    DD   DOY YYYYMMDD    RH2M   T2M ALLSKY_SFC_SW_DWN
   <dbl> <dbl> <dbl> <int> <int> <int> <date>     <dbl> <dbl>             <dbl>
 1  29.8  62.6  2020     6     1   153 2020-06-01  76.8  9.94             18.8 
 2  29.8  62.6  2020     6     2   154 2020-06-02  67.7 12.3              26.2 
 3  29.8  62.6  2020     6     3   155 2020-06-03  70.2 13.0              26.4 
 4  29.8  62.6  2020     6     4   156 2020-06-04  81.7 13.0              19.1 
 5  29.8  62.6  2020     6     5   157 2020-06-05  85.2 14                 9.83
 6  29.8  62.6  2020     6     6   158 2020-06-06  85.2 14.9              15.4 
 7  29.8  62.6  2020     6     7   159 2020-06-07  72.6 14.4              24.3 
 8  29.8  62.6  2020     6     8   160 2020-06-08  89.8 17.2              14.1 
 9  29.8  62.6  2020     6     9   161 2020-06-09  84.9 17.6              12.5 
10  29.8  62.6  2020     6    10   162 2020-06-10  85.8 16                22.1 
# ℹ 20 more rows
…
[1] "Year      : Year"                                        
[2] "DOY       : Day Of Year"                                 
[3] "OMQF      : OMTO3 Quality Flags (dimensionless)"         
[4] "UVBQF     : Quality Flags on Pixel Level (dimensionless)"
[5] "OMTO3_O3  : Total column ozone (DU)"                     
[6] "CSEDDose  : Clear Sky Erythemal Daily Dose (J/m^2)"      
[7] "EDDose    : Erythemal Daily Dose (J/m^2)"                

Code
omiuvb.tb[ , column_selector]

# A tibble: 9,508 × 6
    Year   DOY OMTO3_O3 EDDose UVBQF  OMQF
   <dbl> <int>    <dbl>  <dbl> <dbl> <dbl>
 1  2004   275     282.   447. 20480     0
 2  2004   275     295.   875. 20482 32768
 3  2004   276     317.  1846. 20480     0
 4  2004   276     317.  1438. 20480     0
 5  2004   277     323.  1552. 20482 36864
 6  2004   277     321.  1340. 20480     0
 7  2004   278     320.  1631. 20480     0
 8  2004   278     320.  1650. 20480     0
 9  2004   279     297.  1385. 20480     0
10  2004   279     288.  1433. 20482 36864
# ℹ 9,498 more rows
…
